2018-11-14T10:19:31.656408Z 0 [Note] d:\ospanel\modules\database\MySQL-5.7\bin\mysqld.exe (mysqld 5.7.23) starting as process 17348 ...
2018-11-14T10:19:31.708292Z 0 [Note] InnoDB: Mutexes and rw_locks use Windows interlocked functions
2018-11-14T10:19:31.708547Z 0 [Note] InnoDB: Uses event mutexes
2018-11-14T10:19:31.708902Z 0 [Note] InnoDB: Memory barrier is not used
2018-11-14T10:19:31.709088Z 0 [Note] InnoDB: Compressed tables use zlib 1.2.3
2018-11-14T10:19:31.709620Z 0 [Note] InnoDB: Number of pools: 1
2018-11-14T10:19:31.709936Z 0 [Note] InnoDB: Not using CPU crc32 instructions
2018-11-14T10:19:31.714678Z 0 [Note] InnoDB: Initializing buffer pool, total size = 128M, instances = 1, chunk size = 128M
2018-11-14T10:19:31.735408Z 0 [Note] InnoDB: Completed initialization of buffer pool
2018-11-14T10:19:31.761331Z 0 [Note] InnoDB: Highest supported file format is Barracuda.
2018-11-14T10:19:31.938125Z 0 [Note] InnoDB: Creating shared tablespace for temporary tables
2018-11-14T10:19:31.938608Z 0 [Note] InnoDB: Setting file 'd:\ospanel\userdata\MySQL-5.7\ibtmp1' size to 12 MB. Physically writing the file full; Please wait ...
2018-11-14T10:19:32.023492Z 0 [Note] InnoDB: File 'd:\ospanel\userdata\MySQL-5.7\ibtmp1' size is now 12 MB.
2018-11-14T10:19:32.036118Z 0 [Note] InnoDB: 96 redo rollback segment(s) found. 96 redo rollback segment(s) are active.
2018-11-14T10:19:32.036341Z 0 [Note] InnoDB: 32 non-redo rollback segment(s) are active.
2018-11-14T10:19:32.036801Z 0 [Note] InnoDB: Waiting for purge to start
2018-11-14T10:19:32.087964Z 0 [Note] InnoDB: 5.7.23 started; log sequence number 8969786
2018-11-14T10:19:32.088437Z 0 [Note] InnoDB: Loading buffer pool(s) from d:\ospanel\userdata\MySQL-5.7\ib_buffer_pool
2018-11-14T10:19:32.088517Z 0 [Note] Plugin 'FEDERATED' is disabled.
2018-11-14T10:19:32.103725Z 0 [Note] Server hostname (bind-address): '127.0.0.1'; port: 3306
2018-11-14T10:19:32.105826Z 0 [Note]   - '127.0.0.1' resolves to '127.0.0.1';
2018-11-14T10:19:32.106444Z 0 [Note] Server socket created on IP: '127.0.0.1'.
2018-11-14T10:19:32.111576Z 0 [Note] InnoDB: Buffer pool(s) load completed at 181114 17:19:32
2018-11-14T10:19:32.156354Z 0 [Note] Event Scheduler: Loaded 0 events
2018-11-14T10:19:32.156692Z 0 [Note] d:\ospanel\modules\database\MySQL-5.7\bin\mysqld.exe: ready for connections.
Version: '5.7.23'  socket: ''  port: 3306  MySQL Community Server (GPL)
2018-11-14T10:19:38.957620Z 0 [Note] d:\ospanel\modules\database\MySQL-5.7\bin\mysqld.exe: Normal shutdown

2018-11-14T10:19:38.957986Z 0 [Note] Giving 0 client threads a chance to die gracefully
2018-11-14T10:19:38.958012Z 0 [Note] Shutting down slave threads
2018-11-14T10:19:38.958038Z 0 [Note] Forcefully disconnecting 0 remaining clients
2018-11-14T10:19:38.958053Z 0 [Note] Event Scheduler: Purging the queue. 0 events
2018-11-14T10:19:38.958537Z 0 [Note] Binlog end
2018-11-14T10:19:38.959572Z 0 [Note] Shutting down plugin 'ngram'
2018-11-14T10:19:38.959599Z 0 [Note] Shutting down plugin 'partition'
2018-11-14T10:19:38.959612Z 0 [Note] Shutting down plugin 'BLACKHOLE'
2018-11-14T10:19:38.959621Z 0 [Note] Shutting down plugin 'ARCHIVE'
2018-11-14T10:19:38.959633Z 0 [Note] Shutting down plugin 'PERFORMANCE_SCHEMA'
2018-11-14T10:19:38.959668Z 0 [Note] Shutting down plugin 'MRG_MYISAM'
2018-11-14T10:19:38.959687Z 0 [Note] Shutting down plugin 'MyISAM'
2018-11-14T10:19:38.959716Z 0 [Note] Shutting down plugin 'INNODB_SYS_VIRTUAL'
2018-11-14T10:19:38.959732Z 0 [Note] Shutting down plugin 'INNODB_SYS_DATAFILES'
2018-11-14T10:19:38.959745Z 0 [Note] Shutting down plugin 'INNODB_SYS_TABLESPACES'
2018-11-14T10:19:38.959754Z 0 [Note] Shutting down plugin 'INNODB_SYS_FOREIGN_COLS'
2018-11-14T10:19:38.959765Z 0 [Note] Shutting down plugin 'INNODB_SYS_FOREIGN'
2018-11-14T10:19:38.959776Z 0 [Note] Shutting down plugin 'INNODB_SYS_FIELDS'
2018-11-14T10:19:38.959786Z 0 [Note] Shutting down plugin 'INNODB_SYS_COLUMNS'
2018-11-14T10:19:38.959795Z 0 [Note] Shutting down plugin 'INNODB_SYS_INDEXES'
2018-11-14T10:19:38.959806Z 0 [Note] Shutting down plugin 'INNODB_SYS_TABLESTATS'
2018-11-14T10:19:38.959864Z 0 [Note] Shutting down plugin 'INNODB_SYS_TABLES'
2018-11-14T10:19:38.959874Z 0 [Note] Shutting down plugin 'INNODB_FT_INDEX_TABLE'
2018-11-14T10:19:38.959879Z 0 [Note] Shutting down plugin 'INNODB_FT_INDEX_CACHE'
2018-11-14T10:19:38.959890Z 0 [Note] Shutting down plugin 'INNODB_FT_CONFIG'
2018-11-14T10:19:38.959902Z 0 [Note] Shutting down plugin 'INNODB_FT_BEING_DELETED'
2018-11-14T10:19:38.959908Z 0 [Note] Shutting down plugin 'INNODB_FT_DELETED'
2018-11-14T10:19:38.959913Z 0 [Note] Shutting down plugin 'INNODB_FT_DEFAULT_STOPWORD'
2018-11-14T10:19:38.959918Z 0 [Note] Shutting down plugin 'INNODB_METRICS'
2018-11-14T10:19:38.959926Z 0 [Note] Shutting down plugin 'INNODB_TEMP_TABLE_INFO'
2018-11-14T10:19:38.959938Z 0 [Note] Shutting down plugin 'INNODB_BUFFER_POOL_STATS'
2018-11-14T10:19:38.959946Z 0 [Note] Shutting down plugin 'INNODB_BUFFER_PAGE_LRU'
2018-11-14T10:19:38.959951Z 0 [Note] Shutting down plugin 'INNODB_BUFFER_PAGE'
2018-11-14T10:19:38.959956Z 0 [Note] Shutting down plugin 'INNODB_CMP_PER_INDEX_RESET'
2018-11-14T10:19:38.959961Z 0 [Note] Shutting down plugin 'INNODB_CMP_PER_INDEX'
2018-11-14T10:19:38.959970Z 0 [Note] Shutting down plugin 'INNODB_CMPMEM_RESET'
2018-11-14T10:19:38.959982Z 0 [Note] Shutting down plugin 'INNODB_CMPMEM'
2018-11-14T10:19:38.959989Z 0 [Note] Shutting down plugin 'INNODB_CMP_RESET'
2018-11-14T10:19:38.959993Z 0 [Note] Shutting down plugin 'INNODB_CMP'
2018-11-14T10:19:38.959998Z 0 [Note] Shutting down plugin 'INNODB_LOCK_WAITS'
2018-11-14T10:19:38.960003Z 0 [Note] Shutting down plugin 'INNODB_LOCKS'
2018-11-14T10:19:38.960013Z 0 [Note] Shutting down plugin 'INNODB_TRX'
2018-11-14T10:19:38.960025Z 0 [Note] Shutting down plugin 'InnoDB'
2018-11-14T10:19:38.960065Z 0 [Note] InnoDB: FTS optimize thread exiting.
2018-11-14T10:19:38.960119Z 0 [Note] InnoDB: Starting shutdown...
2018-11-14T10:19:39.060805Z 0 [Note] InnoDB: Dumping buffer pool(s) to d:\ospanel\userdata\MySQL-5.7\ib_buffer_pool
2018-11-14T10:19:39.066545Z 0 [Note] InnoDB: Buffer pool(s) dump completed at 181114 17:19:39
2018-11-14T10:19:40.022260Z 0 [Note] InnoDB: Shutdown completed; log sequence number 8969814
2018-11-14T10:19:40.022644Z 0 [Note] InnoDB: Removed temporary tablespace data file: "ibtmp1"
2018-11-14T10:19:40.022681Z 0 [Note] Shutting down plugin 'MEMORY'
2018-11-14T10:19:40.022715Z 0 [Note] Shutting down plugin 'CSV'
2018-11-14T10:19:40.022737Z 0 [Note] Shutting down plugin 'sha256_password'
2018-11-14T10:19:40.022755Z 0 [Note] Shutting down plugin 'mysql_native_password'
2018-11-14T10:19:40.022991Z 0 [Note] Shutting down plugin 'binlog'
2018-11-14T10:19:40.025113Z 0 [Note] d:\ospanel\modules\database\MySQL-5.7\bin\mysqld.exe: Shutdown complete

